<svg xmlns="http://www.w3.org/2000/svg" width="45" height="45" viewBox="0 0 45 45">
  <g id="Group_119" data-name="Group 119" transform="translate(-1852 -559)">
    <g id="Group_117" data-name="Group 117" transform="translate(-2 -3)">
      <path id="Path_53" data-name="Path 53" d="M22.5,0A22.5,22.5,0,1,1,0,22.5,22.5,22.5,0,0,1,22.5,0Z" transform="translate(1854 562)" fill="#e5e0e0"/>
    </g>
    <g id="Group_118" data-name="Group 118" transform="translate(113.55 -47.858)">
      <path id="Icon_awesome-share-alt" data-name="Icon awesome-share-alt" d="M14.614,13.285a3.968,3.968,0,0,0-2.482.867L7.877,11.493a4.008,4.008,0,0,0,0-1.731L12.131,7.1a3.978,3.978,0,1,0-1.409-2.253L6.468,7.51a3.986,3.986,0,1,0,0,6.236l4.255,2.659a3.986,3.986,0,1,0,3.891-3.12Z" transform="translate(1751.65 618.73)" fill="#575757"/>
    </g>
  </g>
</svg>
