<svg xmlns="http://www.w3.org/2000/svg" width="16.301" height="18.002" viewBox="0 0 16.301 18.002">
  <g id="Icon_feather-trash-2" data-name="Icon feather-trash-2" transform="translate(0.5 0.5)">
    <path id="Path_47" data-name="Path 47" d="M4.5,9H19.8" transform="translate(-4.5 -5.6)" fill="none" stroke="#848484" stroke-linecap="round" stroke-linejoin="round" stroke-width="1"/>
    <path id="Path_48" data-name="Path 48" d="M19.4,6.4V18.3A1.7,1.7,0,0,1,17.7,20H9.2a1.7,1.7,0,0,1-1.7-1.7V6.4m2.55,0V4.7A1.7,1.7,0,0,1,11.75,3h3.4a1.7,1.7,0,0,1,1.7,1.7V6.4" transform="translate(-5.8 -3)" fill="none" stroke="#848484" stroke-linecap="round" stroke-linejoin="round" stroke-width="1"/>
    <path id="Path_49" data-name="Path 49" d="M15,16.5v5.1" transform="translate(-9.049 -8.849)" fill="none" stroke="#848484" stroke-linecap="round" stroke-linejoin="round" stroke-width="1"/>
    <path id="Path_50" data-name="Path 50" d="M21,16.5v5.1" transform="translate(-11.649 -8.849)" fill="none" stroke="#848484" stroke-linecap="round" stroke-linejoin="round" stroke-width="1"/>
  </g>
</svg>
