<svg xmlns="http://www.w3.org/2000/svg" width="17.545" height="17.577" viewBox="0 0 17.545 17.577">
  <path id="Icon_feather-phone" data-name="Icon feather-phone" d="M19.211,15.036v2.42a1.613,1.613,0,0,1-1.759,1.613,15.964,15.964,0,0,1-6.962-2.477,15.73,15.73,0,0,1-4.84-4.84A15.964,15.964,0,0,1,3.174,4.759,1.613,1.613,0,0,1,4.78,3H7.2A1.613,1.613,0,0,1,8.813,4.387a10.358,10.358,0,0,0,.565,2.267,1.613,1.613,0,0,1-.363,1.7L7.99,9.381a12.907,12.907,0,0,0,4.84,4.84L13.855,13.2a1.613,1.613,0,0,1,1.7-.363,10.358,10.358,0,0,0,2.267.565A1.613,1.613,0,0,1,19.211,15.036Z" transform="translate(-2.417 -2.25)" fill="none" stroke="#9ed6e5" stroke-linecap="round" stroke-linejoin="round" stroke-width="1.5"/>
</svg>
