<svg xmlns="http://www.w3.org/2000/svg" width="27.707" height="27.707" viewBox="0 0 27.707 27.707">
  <g id="Group_119" data-name="Group 119" transform="translate(-405.646 -481.646)">
    <g id="Group_118" data-name="Group 118">
      <g id="Group_112" data-name="Group 112" transform="translate(416.982 518.982)">
        <line id="Line_67" data-name="Line 67" x2="27" y2="27" transform="translate(-10.982 -36.982)" fill="none" stroke="#c9bdbd" stroke-width="1"/>
        <line id="Line_68" data-name="Line 68" y1="27" x2="27" transform="translate(-10.982 -36.982)" fill="none" stroke="#c9bdbd" stroke-width="1"/>
      </g>
    </g>
  </g>
</svg>
